# Copyright 1999-2012 Gentoo Foundation
# Distributed under the terms of the GNU General Public License v2
# $Header: /mnt/disk/cgit/cvsroot/gentoo-x86/profiles/hardened/linux/x86/use.mask,v 1.7 2012/11/27 02:03:24 zerochaos Exp $

# Rick Farina <zerochaos@gentoo.org> 26 Nov 2012          
video_cards_nvidia
# removing mask on nvidia use flag as it is used by monitoring tools
# which may be desireable for cuda users
#nvidia
# adjusting use flag mask as nvidia-drivers are usable for cuda at least
#cuda
