# Copyright 1999-2013 Gentoo Foundation.
# Distributed under the terms of the GNU General Public License, v2
# $Header: /mnt/disk/cgit/cvsroot/gentoo-x86/profiles/arch/x86-fbsd/use.mask,v 1.15 2013/08/22 16:07:41 chithanh Exp $

# Unmask the flag which corresponds to ARCH.
-x86-fbsd
-abi_x86_32

# Diego Elio Pettenò <flameeyes@gentoo.org> (21 Aug 2012)
# IPMI is only implemented for x86, amd64 and ia64
-ipmi

-3dnow
-3dnowext
-mmx
-mmxext
-sse
-sse2
-sse3
-sse4
-sse4a
-ssse3

# nvidia drivers works on x86
-xvmc
-nvidia
-video_cards_nvidia

# Unmask vmware drivers
-video_cards_vmware
-input_devices_vmmouse

# Diablo Latte and Caffe (JRE and JDK) works here
-java

# No pulseaudio version is keyworded; unmask when it works
pulseaudio
# No portaudio version is keyworded; unmask when it works
portaudio

# valgrind hasn't been ported to fbsd yet
valgrind

# libva doesnt build on fbsd for now
vaapi

# Chí-Thanh Christopher Nguyễn <chithanh@gentoo.org> (22 Aug 2013)
# virtual/opencl is not keyworded
opencl
