# Copyright 1999-2014 Gentoo Foundation
# Distributed under the terms of the GNU General Public License v2
# $Header: /mnt/disk/cgit/cvsroot/gentoo-x86/profiles/targets/systemd/package.use.mask,v 1.2 2014/01/27 21:59:11 axs Exp $

# 'static-libs' support on sys-apps/systemd is not provided
virtual/udev static-libs
sys-fs/cryptsetup static static-libs
sys-fs/lvm2 static static-libs
sys-fs/dmraid static
